simulation/qsim/CODE6C.msim.vcd
$comment
	File created using the following command:
		vcd file CODE6C.msim.vcd -direction
$end
$date
	Wed Apr 25 14:46:28 2018
$end
$version
	ModelSim Version 10.1d
$end
$timescale
	1ps
$end
$scope module CODE6C_vlg_vec_tst $end
$var reg 3 ! sel [2:0] $end
$var reg 8 " vet_in [7:0] $end
$var wire 1 # vet_out [11] $end
$var wire 1 $ vet_out [10] $end
$var wire 1 % vet_out [9] $end
$var wire 1 & vet_out [8] $end
$var wire 1 ' vet_out [7] $end
$var wire 1 ( vet_out [6] $end
$var wire 1 ) vet_out [5] $end
$var wire 1 * vet_out [4] $end
$var wire 1 + vet_out [3] $end
$var wire 1 , vet_out [2] $end
$var wire 1 - vet_out [1] $end
$var wire 1 . vet_out [0] $end
$var wire 1 / sampler $end
$scope module i1 $end
$var wire 1 0 gnd $end
$var wire 1 1 vcc $end
$var wire 1 2 unknown $end
$var tri1 1 3 devclrn $end
$var tri1 1 4 devpor $end
$var tri1 1 5 devoe $end
$var wire 1 6 temp~3_combout $end
$var wire 1 7 temp~18_combout $end
$var wire 1 8 vet_out[0]~output_o $end
$var wire 1 9 vet_out[1]~output_o $end
$var wire 1 : vet_out[2]~output_o $end
$var wire 1 ; vet_out[3]~output_o $end
$var wire 1 < vet_out[4]~output_o $end
$var wire 1 = vet_out[5]~output_o $end
$var wire 1 > vet_out[6]~output_o $end
$var wire 1 ? vet_out[7]~output_o $end
$var wire 1 @ vet_out[8]~output_o $end
$var wire 1 A vet_out[9]~output_o $end
$var wire 1 B vet_out[10]~output_o $end
$var wire 1 C vet_out[11]~output_o $end
$var wire 1 D sel[2]~input_o $end
$var wire 1 E vet_in[3]~input_o $end
$var wire 1 F vet_in[1]~input_o $end
$var wire 1 G sel[1]~input_o $end
$var wire 1 H temp~0_combout $end
$var wire 1 I vet_in[0]~input_o $end
$var wire 1 J sel[0]~input_o $end
$var wire 1 K temp~1_combout $end
$var wire 1 L temp~2_combout $end
$var wire 1 M temp~4_combout $end
$var wire 1 N temp~5_combout $end
$var wire 1 O temp~6_combout $end
$var wire 1 P vet_in[4]~input_o $end
$var wire 1 Q vet_in[2]~input_o $end
$var wire 1 R temp~7_combout $end
$var wire 1 S temp~8_combout $end
$var wire 1 T temp~9_combout $end
$var wire 1 U temp~10_combout $end
$var wire 1 V temp~12_combout $end
$var wire 1 W temp~13_combout $end
$var wire 1 X temp~14_combout $end
$var wire 1 Y vet_in[6]~input_o $end
$var wire 1 Z temp~15_combout $end
$var wire 1 [ temp~16_combout $end
$var wire 1 \ temp~17_combout $end
$var wire 1 ] temp~19_combout $end
$var wire 1 ^ temp~20_combout $end
$var wire 1 _ temp~21_combout $end
$var wire 1 ` vet_in[5]~input_o $end
$var wire 1 a temp~11_combout $end
$var wire 1 b temp~22_combout $end
$var wire 1 c temp~23_combout $end
$var wire 1 d vet_in[7]~input_o $end
$var wire 1 e temp~24_combout $end
$var wire 1 f temp~25_combout $end
$var wire 1 g temp~26_combout $end
$var wire 1 h temp~27_combout $end
$upscope $end
$upscope $end
$enddefinitions $end
#0
$dumpvars
b0 !
b10001110 "
0.
0-
0,
0+
0*
1)
1(
1'
0&
0%
0$
1#
x/
00
11
x2
13
14
15
06
17
08
09
0:
0;
0<
1=
1>
1?
0@
0A
0B
1C
0D
1E
1F
0G
0H
0I
0J
0K
0L
0M
1N
0O
0P
1Q
1R
1S
0T
0U
1V
0W
0X
0Y
0Z
0[
0\
1]
1^
1_
0`
0a
1b
0c
1d
0e
0f
0g
1h
$end
#100000
b1 !
1J
0/
1Z
1T
0S
0R
1H
07
0h
1S
0]
0C
0#
1g
0_
1\
1B
0>
1<
1$
0(
1*
1_
0b
1>
0?
1(
0'
#200000
b11 !
b10 !
0J
1G
1/
1e
0Z
0T
0S
1K
0H
17
0g
1c
0^
1W
1U
1]
0B
1@
0=
1;
1:
0$
1&
0)
1+
1,
1f
0c
0_
0U
1A
0@
0>
0:
1%
0&
0(
0,
1^
1=
1)
#300000
b11 !
1J
0/
0e
1Z
1T
1S
1R
0K
1H
07
0S
0]
0f
1c
1_
1U
0A
1@
1>
1:
0%
1&
1(
1,
0_
0^
0>
0=
0(
0)
#400000
b111 !
b101 !
b100 !
0J
0G
1D
1/
0Z
0T
1S
1M
0H
17
0V
0c
1_
1^
0W
0U
1O
0\
1L
1]
0@
1>
1=
0;
0:
19
0<
18
0&
1(
1)
0+
0,
1-
0*
1.
0_
1U
1W
0L
0^
0>
1:
1;
08
0=
0(
1,
1+
0.
0)
1b
1?
1'
#500000
b101 !
1J
0/
1Z
1T
0S
0R
0M
1H
07
1S
0]
1_
0U
0W
1L
1>
0:
0;
18
1(
0,
0+
1.
1U
0b
1:
0?
1,
0'
#600000
b111 !
b110 !
0J
1G
1/
0Z
0T
0S
1M
1K
0H
17
1[
0_
0O
0[
1]
0>
09
0(
0-
0U
1O
1\
0:
19
1<
0,
1-
1*
0\
1^
0<
1=
0*
1)
#700000
b111 !
1J
0/
1Z
1T
1S
1R
0M
0K
1H
07
1[
0S
0]
1U
0O
1:
09
1,
0-
1\
0U
0^
1<
0:
0=
1*
0,
0)
#800000
b11 !
b1 !
b0 !
0J
0G
0D
1/
0Z
0T
1S
0H
17
0[
1V
1h
1g
0L
1]
1C
1B
08
1#
1$
0.
0g
1_
0\
1^
0B
1>
0<
1=
0$
1(
0*
1)
1b
1?
1'
#900000
b1 !
1J
0/
1Z
1T
0S
0R
1H
07
0h
1S
0]
0C
0#
1g
0_
1\
1B
0>
1<
1$
0(
1*
1_
0b
1>
0?
1(
0'
